<?xml version="1.0" encoding="UTF-8" standalone="no"?>
<svg
   xmlns:dc="http://purl.org/dc/elements/1.1/"
   xmlns:cc="http://creativecommons.org/ns#"
   xmlns:rdf="http://www.w3.org/1999/02/22-rdf-syntax-ns#"
   xmlns:svg="http://www.w3.org/2000/svg"
   xmlns="http://www.w3.org/2000/svg"
   xmlns:sodipodi="http://sodipodi.sourceforge.net/DTD/sodipodi-0.dtd"
   xmlns:inkscape="http://www.inkscape.org/namespaces/inkscape"
   width="170.39429"
   height="170.38664"
   version="1.1"
   id="svg1061"
   sodipodi:docname="Logo.svg"
   inkscape:version="0.92.4 (5da689c313, 2019-01-14)">
  <metadata
     id="metadata1065">
    <rdf:RDF>
      <cc:Work
         rdf:about="">
        <dc:format>image/svg+xml</dc:format>
        <dc:type
           rdf:resource="http://purl.org/dc/dcmitype/StillImage" />
        <dc:title></dc:title>
      </cc:Work>
    </rdf:RDF>
  </metadata>
  <sodipodi:namedview
     pagecolor="#ffffff"
     bordercolor="#666666"
     borderopacity="1"
     objecttolerance="10"
     gridtolerance="10"
     guidetolerance="10"
     inkscape:pageopacity="0"
     inkscape:pageshadow="2"
     inkscape:window-width="1366"
     inkscape:window-height="705"
     id="namedview1063"
     showgrid="false"
     fit-margin-top="10"
     fit-margin-left="10"
     fit-margin-right="10"
     fit-margin-bottom="10"
     inkscape:zoom="2.7011321"
     inkscape:cx="9.8609077"
     inkscape:cy="80.028483"
     inkscape:window-x="-8"
     inkscape:window-y="-8"
     inkscape:window-maximized="1"
     inkscape:current-layer="g1059" />
  <desc
     id="desc815">E:\Documents\RHINE WAAL WS 2019-20\IP14_Green FabLab - Exposition, Guidance and Tourism at the LaGa 2020\Designs\Jeff_KeyChain.dxf - scale = 1.000000, origin = (0.000000, 0.000000), method = manual</desc>
  <defs
     id="defs829">
    <marker
       id="DistanceX"
       orient="auto"
       refX="0"
       refY="0"
       style="overflow:visible">
      <path
         d="M 3,-3 -3,3 M 0,-5 V 5"
         style="stroke:#000000;stroke-width:0.5"
         id="path817"
         inkscape:connector-curvature="0" />
    </marker>
    <pattern
       height="8"
       id="Hatch"
       patternUnits="userSpaceOnUse"
       width="8"
       x="0"
       y="0">
      <path
         d="M8 4 l-4,4"
         linecap="square"
         stroke="#000000"
         stroke-width="0.25"
         id="path820" />
      <path
         d="M6 2 l-4,4"
         linecap="square"
         stroke="#000000"
         stroke-width="0.25"
         id="path822" />
      <path
         d="M4 0 l-4,4"
         linecap="square"
         stroke="#000000"
         stroke-width="0.25"
         id="path824" />
    </pattern>
    <symbol
       id="*MODEL_SPACE" />
    <symbol
       id="*PAPER_SPACE" />
    <marker
       style="overflow:visible"
       refY="0"
       refX="0"
       orient="auto"
       id="DistanceX-5">
      <path
         id="path4782"
         style="stroke:#000000;stroke-width:0.5"
         d="M 3,-3 -3,3 M 0,-5 V 5"
         inkscape:connector-curvature="0" />
    </marker>
    <pattern
       y="0"
       x="0"
       width="8"
       patternUnits="userSpaceOnUse"
       id="Hatch-0"
       height="8">
      <path
         id="path4785"
         stroke-width="0.25"
         stroke="#000000"
         linecap="square"
         d="M8 4 l-4,4" />
      <path
         id="path4787"
         stroke-width="0.25"
         stroke="#000000"
         linecap="square"
         d="M6 2 l-4,4" />
      <path
         id="path4789"
         stroke-width="0.25"
         stroke="#000000"
         linecap="square"
         d="M4 0 l-4,4" />
    </pattern>
    <symbol
       id="*MODEL_SPACE-7" />
    <symbol
       id="*PAPER_SPACE-5" />
    <clipPath
       clipPathUnits="userSpaceOnUse"
       id="clipPath992">
      <g
         inkscape:label="Clip"
         id="use994"
         style="fill:#969696;fill-opacity:0.58823529;stroke:#969696;stroke-opacity:0.52261305">
        <path
           inkscape:connector-curvature="0"
           id="path897"
           d="m 89.575668,202.25026 c -20.24805,-2.41195 -36.452134,-10.69196 -49.450427,-25.26834 -8.568957,-9.6093 -14.432345,-21.35703 -17.315584,-34.69307 -1.587798,-7.34414 -1.592146,-22.06059 -0.0087,-29.26761 4.08133,-18.575478 13.8698,-34.087509 28.432199,-45.05721 13.536218,-10.19669 28.205981,-15.037227 45.451831,-14.997601 8.510873,0.01956 14.994023,1.049947 22.746843,3.615244 25.89363,8.567841 44.52692,29.52671 50.29313,56.570137 1.32441,6.21145 1.30231,22.65335 -0.039,29.04188 -6.37356,30.35588 -30.28514,53.80372 -60.28161,59.11253 -4.38443,0.77596 -16.426694,1.34929 -19.828706,0.94404 z m 18.435282,-5.07941 c 14.46177,-2.24672 28.83941,-9.87771 39.27814,-20.84703 11.89707,-12.50178 18.54367,-28.02391 19.38783,-45.2773 1.71916,-35.136997 -21.86374,-65.305954 -56.8982,-72.788322 -6.10678,-1.304235 -21.225114,-1.287374 -27.27412,0.03042 -20.247315,4.41093 -37.091933,16.46519 -47.375375,33.902525 -6.525805,11.065617 -10.349178,27.027627 -9.436494,39.395947 1.926999,26.1139 16.440326,48.03881 39.236992,59.27434 13.638838,6.72201 27.427193,8.74138 43.081227,6.30942 z"
           style="opacity:1;fill:#969696;fill-opacity:0.58823529;stroke:#969696;stroke-width:0.38178992;stroke-miterlimit:4;stroke-dasharray:none;stroke-opacity:0.52261305" />
        <path
           inkscape:connector-curvature="0"
           id="path899"
           d="m 51.884869,172.31966 -3.752038,-2.2355 1.607368,-2.6071 c 0.92441,-1.4994 1.794739,-3.4905 2.048349,-4.6861 1.085179,-5.1163 -1.258964,-15.6636 -8.73122,-39.2857 -1.706853,-5.3959 -3.205202,-10.1723 -3.329664,-10.6142 -0.205295,-0.729 -0.02731,-0.8421 1.918032,-1.2192 1.179381,-0.2286 3.393805,-0.8065 4.920942,-1.2841 1.527137,-0.4776 2.885447,-0.762 3.018467,-0.6319 0.13302,0.1301 1.345725,4.9012 2.694901,10.6026 1.349175,5.7013 3.531941,14.3643 4.850591,19.2511 1.31865,4.8869 2.635115,10.1347 2.925478,11.6618 1.250434,6.5766 1.079657,12.3486 -0.498182,16.8378 -0.74331,2.1149 -3.232706,6.5006 -3.670129,6.4659 -0.137971,-0.011 -1.939274,-1.0259 -4.002895,-2.2554 z"
           style="opacity:1;fill:#969696;fill-opacity:0.58823529;stroke:#969696;stroke-width:0.27984765;stroke-miterlimit:4;stroke-dasharray:none;stroke-opacity:0.52261305" />
        <path
           inkscape:connector-curvature="0"
           id="path901"
           d="m 116.81576,150.62346 c -0.098,-0.3563 -1.80384,-6.7286 -3.79083,-14.1607 -1.98699,-7.4321 -3.88379,-13.8224 -4.21509,-14.2008 -0.48386,-0.5526 -0.93018,-0.6455 -2.26835,-0.4722 -0.91628,0.1186 -2.0067,0.3137 -2.42315,0.4336 -0.67471,0.1942 -0.85112,-0.1071 -1.61949,-2.7662 -0.98916,-3.4233 -0.85812,-3.8187 1.49945,-4.5251 2.34201,-0.7017 2.40384,-0.9608 1.24642,-5.2241 -1.11174,-4.0949 -1.33169,-7.8682 -0.61042,-10.4718 0.89154,-3.2182 4.55671,-7.007 8.75617,-9.0516 4.05274,-1.9732 3.99349,-1.9882 5.71675,1.4392 0.82634,1.6436 1.50245,3.0529 1.50245,3.132 0,0.079 -0.97484,0.4991 -2.16631,0.9336 -3.03957,1.1083 -4.60594,2.259 -5.12455,3.7647 -1.05909,3.075 -0.0997,11.5535 1.35975,12.0168 0.37458,0.1188 2.61219,-0.2719 4.97248,-0.8684 l 4.29143,-1.0845 0.95513,3.1313 c 0.52532,1.7223 0.87472,3.341 0.77645,3.597 -0.0983,0.2561 -2.02875,0.8539 -4.28996,1.3284 -2.26121,0.4745 -4.26239,1.0451 -4.44707,1.2679 -0.35338,0.4264 2.71796,12.1768 6.23557,23.8559 1.06362,3.5315 1.86131,6.4934 1.77263,6.5821 -0.24709,0.247 -6.66052,1.981 -7.34665,1.9862 -0.33258,0 -0.68485,-0.2869 -0.78281,-0.6433 z"
           style="opacity:1;fill:#969696;fill-opacity:0.58823529;stroke:#969696;stroke-width:0.27984765;stroke-miterlimit:4;stroke-dasharray:none;stroke-opacity:0.52261305" />
        <path
           inkscape:connector-curvature="0"
           id="path903"
           d="m 79.60824,159.08346 c -3.55046,-1.2359 -4.056491,-1.5377 -6.833347,-4.0756 -2.734022,-2.4987 -4.069021,-4.6595 -5.51066,-8.9195 -1.023807,-3.0253 -1.19519,-4.0605 -1.225761,-7.4043 -0.02906,-3.1789 0.124437,-4.3595 0.842392,-6.4788 1.99248,-5.8814 5.062305,-9.6604 9.563434,-11.7727 5.352327,-2.5117 9.679444,-2.7108 14.578028,-0.6707 4.012502,1.671 7.581961,5.0902 9.451784,9.0539 0.75349,1.5973 1.4433,3.6797 1.53291,4.6277 0.13949,1.4757 0.0303,1.8474 -0.75918,2.5845 -1.10327,1.0301 -9.015807,4.2655 -18.291937,7.4796 -3.70744,1.2846 -6.828688,2.5646 -6.936108,2.8445 -0.28796,0.7505 1.491904,3.2317 3.134878,4.3703 5.940767,4.117 14.065006,2.6132 20.198207,-3.7387 l 2.62209,-2.7156 1.47081,1.558 c 2.69165,2.8513 2.66107,2.5359 0.52516,5.417 -2.2844,3.0815 -3.86738,4.5265 -6.320432,5.7696 -6.500799,3.2942 -12.537182,3.987 -18.042268,2.0708 z m 2.813319,-21.3251 c 6.794604,-2.3684 10.037557,-3.8867 10.268748,-4.8079 0.525225,-2.0926 -2.692955,-5.7632 -6.139586,-7.0026 -5.815479,-2.0912 -12.26549,2.3325 -13.177741,9.0379 -0.284976,2.0947 0.378647,4.7071 1.244796,4.9004 0.752898,0.1679 2.887322,-0.414 7.803783,-2.1278 z"
           style="opacity:1;fill:#969696;fill-opacity:0.58823529;stroke:#969696;stroke-width:0.27984765;stroke-miterlimit:4;stroke-dasharray:none;stroke-opacity:0.52261305" />
        <path
           inkscape:connector-curvature="0"
           id="path905"
           d="m 141.36183,143.56206 c -5.66973,-21.2036 -7.46213,-27.6158 -7.85002,-28.0832 -0.46606,-0.5616 -1.80777,-0.5337 -4.44902,0.092 -0.95526,0.2264 -1.01692,0.1395 -1.89683,-2.6724 l -0.90947,-2.9065 0.8802,-0.8165 c 0.48411,-0.449 1.4511,-0.9235 2.14885,-1.0544 0.69776,-0.1309 1.36518,-0.4896 1.48315,-0.797 0.11798,-0.3075 -0.10731,-1.6655 -0.50064,-3.0179 -1.90327,-6.544 -1.9052,-9.7904 -0.008,-13.6612 1.31052,-2.674 4.28859,-5.3477 7.93498,-7.1241 3.96605,-1.9321 3.85209,-1.9648 5.62781,1.6157 l 1.55249,3.1303 -2.41657,0.8531 c -1.32911,0.4692 -2.99421,1.3591 -3.70023,1.9774 -1.11154,0.9735 -1.33542,1.4631 -1.66958,3.6507 -0.56417,3.6934 0.54594,9.6306 1.87983,10.0539 0.38246,0.1214 2.6038,-0.2616 4.93631,-0.851 l 4.24093,-1.0718 0.98669,3.2962 c 0.54268,1.8129 0.90515,3.4281 0.8055,3.5893 -0.0996,0.1613 -1.97885,0.6779 -4.176,1.1481 -2.19715,0.4702 -4.21491,1.0562 -4.48392,1.3024 -0.53116,0.4859 1.28695,7.6641 5.81326,22.9515 1.20575,4.0723 2.13734,7.4617 2.0702,7.532 -0.0671,0.07 -1.88017,0.5993 -4.02897,1.1758 l -3.9069,1.0481 z"
           style="opacity:1;fill:#969696;fill-opacity:0.58823529;stroke:#969696;stroke-width:0.27984765;stroke-miterlimit:4;stroke-dasharray:none;stroke-opacity:0.52261305" />
      </g>
    </clipPath>
  </defs>
  <g
     inkscape:groupmode="layer"
     inkscape:label="0"
     id="g1059"
     transform="translate(-11.420021,-42.192187)">
    <path
       style="opacity:0;fill:#4e0000;fill-opacity:1;stroke:#000000;stroke-width:0.27984765;stroke-miterlimit:4;stroke-dasharray:none;stroke-opacity:1"
       d=""
       id="path4776"
       inkscape:connector-curvature="0"
       transform="translate(20.245089,51.643893)" />
    <path
       inkscape:connector-curvature="0"
       id="path2013"
       d="M 89.99086,202.24973 C 69.619107,199.82839 53.316025,191.51612 40.238321,176.88295 31.617012,167.23621 25.717803,155.44271 22.816949,142.05471 21.21945,134.68196 21.215076,119.90817 22.808196,112.67307 26.91446,94.025219 36.762732,78.452752 51.414098,67.440312 65.033014,57.203895 79.792401,52.344498 97.143613,52.384279 c 8.562867,0.01964 15.085627,1.054038 22.885817,3.629329 26.05182,8.601222 44.79895,29.641749 50.60039,56.790542 1.3325,6.23565 1.31026,22.74161 -0.0392,29.15503 -6.4125,30.47415 -30.47017,54.01334 -60.6499,59.34284 -4.41121,0.77898 -16.527048,1.35454 -19.949844,0.94771 z m 18.54791,-5.0992 c 14.55012,-2.25547 29.0156,-9.91619 39.51811,-20.92825 11.96975,-12.55049 18.65696,-28.13309 19.50627,-45.4537 1.72967,-35.273897 -21.99731,-65.560395 -57.24581,-73.071915 -6.14409,-1.309316 -21.354786,-1.29239 -27.440748,0.03054 -20.371014,4.428115 -37.318542,16.52934 -47.66481,34.034612 -6.565674,11.108733 -10.412405,27.132933 -9.494145,39.549433 1.938771,26.21565 16.540766,48.22598 39.476706,59.50528 13.722163,6.7482 27.594757,8.77544 43.344427,6.334 z"
       style="opacity:1;fill:#ffffff;fill-opacity:1;stroke:#6464c8;stroke-width:0.38369969;stroke-miterlimit:4;stroke-dasharray:none;stroke-opacity:0.58823532" />
    <path
       inkscape:connector-curvature="0"
       id="path4770"
       d="m 52.069793,172.20252 -3.774961,-2.24421 1.617188,-2.61726 c 0.930058,-1.50524 1.805704,-3.50409 2.060863,-4.70435 1.091809,-5.13624 -1.266655,-15.72463 -8.784562,-39.43876 -1.717281,-5.41693 -3.224784,-10.21194 -3.350006,-10.65556 -0.20655,-0.73184 -0.02748,-0.84538 1.92975,-1.22395 1.186586,-0.22949 3.414539,-0.80964 4.951006,-1.2891 1.536467,-0.47946 2.903075,-0.76497 3.036908,-0.63436 0.133832,0.1306 1.353946,4.92029 2.711365,10.64391 1.357418,5.72351 3.553519,14.42026 4.880225,19.3261 1.326706,4.90594 2.651214,10.17419 2.943351,11.70724 1.258073,6.60222 1.086253,12.39671 -0.501226,16.9034 -0.747851,2.12314 -3.252455,6.52592 -3.692551,6.49109 -0.138814,-0.011 -1.951122,-1.0299 -4.02735,-2.26419 z"
       style="opacity:1;fill:#ffffff;fill-opacity:1;stroke:#6464c8;stroke-width:0.2812475;stroke-miterlimit:4;stroke-dasharray:none;stroke-opacity:0.58823532" />
    <path
       inkscape:connector-curvature="0"
       id="path5201"
       d="m 117.39737,150.42179 c -0.0986,-0.35769 -1.81486,-6.75481 -3.81399,-14.21587 -1.99913,-7.46106 -3.90751,-13.87625 -4.24084,-14.25613 -0.48681,-0.55475 -0.93586,-0.64801 -2.28221,-0.47404 -0.92187,0.11906 -2.01896,0.31492 -2.43795,0.43529 -0.67883,0.19496 -0.85632,-0.10752 -1.62939,-2.77698 -0.9952,-3.43663 -0.86336,-3.83357 1.50862,-4.54273 2.35631,-0.70443 2.41852,-0.96454 1.25403,-5.24445 -1.11853,-4.11085 -1.33983,-7.89885 -0.61415,-10.512599 0.89699,-3.230738 4.58455,-7.0343 8.80967,-9.086866 4.0775,-1.980887 4.01788,-1.995946 5.75167,1.444808 0.83139,1.650003 1.51163,3.064794 1.51163,3.144202 0,0.07931 -0.98079,0.501045 -2.17954,0.937238 -3.05814,1.112618 -4.63408,2.267801 -5.15586,3.779367 -1.06556,3.08698 -0.10031,11.59851 1.36806,12.06362 0.37686,0.11926 2.62814,-0.27296 5.00285,-0.87178 l 4.31765,-1.08873 0.96097,3.1435 c 0.52853,1.72901 0.88006,3.35402 0.78119,3.61101 -0.0989,0.2571 -2.04114,0.85723 -4.31617,1.33358 -2.27502,0.47635 -4.28843,1.04917 -4.47424,1.27284 -0.35554,0.42806 2.73457,12.22424 6.27367,23.94884 1.07012,3.54526 1.87268,6.5187 1.78346,6.60775 -0.2486,0.24796 -6.70121,1.98872 -7.39153,1.99394 -0.33462,0 -0.68904,-0.28802 -0.7876,-0.64581 z"
       style="opacity:1;fill:#ffffff;fill-opacity:1;stroke:#6464c8;stroke-width:0.2812475;stroke-miterlimit:4;stroke-dasharray:none;stroke-opacity:0.58823532" />
    <path
       inkscape:connector-curvature="0"
       id="path5203"
       d="m 79.962537,158.91475 c -3.572151,-1.24071 -4.081274,-1.54369 -6.875095,-4.09148 -2.750725,-2.50843 -4.09388,-4.67765 -5.544326,-8.95425 -1.030062,-3.03708 -1.202492,-4.07632 -1.23325,-7.43315 -0.02924,-3.19128 0.125197,-4.37648 0.847538,-6.50404 2.004653,-5.90431 5.093233,-9.69804 9.621861,-11.81857 5.385027,-2.52148 9.73858,-2.72136 14.667091,-0.67331 4.037016,1.67751 7.628283,5.11003 9.509524,9.08918 0.7581,1.60352 1.45212,3.69403 1.54228,4.64573 0.14034,1.48145 0.0305,1.85459 -0.76382,2.59457 -1.11001,1.03411 -9.070886,4.28211 -18.403688,7.50874 -3.73009,1.2896 -6.870407,2.57459 -6.978483,2.85558 -0.289719,0.75342 1.501018,3.24429 3.15403,4.38733 5.977062,4.13304 14.150935,2.62338 20.321606,-3.75327 l 2.638105,-2.72618 1.4798,1.56407 c 2.70809,2.86241 2.67733,2.54578 0.52837,5.43811 -2.29836,3.0935 -3.89101,4.54413 -6.359048,5.79207 -6.540514,3.30704 -12.613776,4.00254 -18.152495,2.07887 z m 2.830507,-21.40818 c 6.836115,-2.37763 10.09888,-3.90185 10.331484,-4.82663 0.528433,-2.10076 -2.709408,-5.78566 -6.177096,-7.02989 -5.851008,-2.09934 -12.340424,2.34159 -13.258249,9.07312 -0.286717,2.10286 0.380961,4.72543 1.252401,4.91949 0.757498,0.16855 2.904962,-0.41562 7.85146,-2.13609 z"
       style="opacity:1;fill:#ffffff;fill-opacity:1;stroke:#6464c8;stroke-width:0.2812475;stroke-miterlimit:4;stroke-dasharray:none;stroke-opacity:0.58823532" />
    <path
       inkscape:connector-curvature="0"
       id="path5207"
       d="m 142.0934,143.33288 c -5.70436,-21.28621 -7.50771,-27.72339 -7.89797,-28.19262 -0.46891,-0.56378 -1.81882,-0.53577 -4.47621,0.0924 -0.96109,0.22729 -1.02313,0.14005 -1.90841,-2.68281 l -0.91503,-2.91782 0.88558,-0.81968 c 0.48706,-0.45075 1.45996,-0.9271 2.16198,-1.05851 0.70202,-0.13141 1.37352,-0.49151 1.49221,-0.80011 0.1187,-0.3087 -0.10797,-1.67199 -0.5037,-3.02966 -1.9149,-6.569492 -1.91684,-9.82854 -0.008,-13.714421 1.31853,-2.684418 4.31479,-5.368535 7.98346,-7.151856 3.99028,-1.939628 3.87562,-1.972455 5.66219,1.621995 l 1.56197,3.142496 -2.43133,0.856424 c -1.33723,0.471028 -3.0125,1.364395 -3.72284,1.985104 -1.11833,0.977293 -1.34357,1.4688 -1.67978,3.664923 -0.56761,3.70779 0.54928,9.668125 1.89132,10.093075 0.3848,0.12187 2.61971,-0.26262 4.96647,-0.85432 l 4.26684,-1.07598 0.99271,3.30905 c 0.546,1.81996 0.91068,3.44145 0.81043,3.60328 -0.10021,0.16193 -1.99094,0.68054 -4.20152,1.15257 -2.21057,0.47204 -4.24066,1.06032 -4.51131,1.30748 -0.53441,0.48779 1.29481,7.69396 5.84877,23.04092 1.21312,4.08817 2.1504,7.49077 2.08285,7.56135 -0.0675,0.0703 -1.89165,0.60163 -4.05358,1.18038 l -3.93077,1.05218 z"
       style="opacity:1;fill:#ffffff;fill-opacity:1;stroke:#6464c8;stroke-width:0.2812475;stroke-miterlimit:4;stroke-dasharray:none;stroke-opacity:0.58823532" />
  </g>
</svg>
